<?xml version="1.0" encoding="UTF-8"?><svg xmlns="http://www.w3.org/2000/svg" xmlns:xlink="http://www.w3.org/1999/xlink" fill-opacity="1" color-rendering="auto" color-interpolation="auto" text-rendering="auto" stroke="black" stroke-linecap="square" width="411" stroke-miterlimit="10" shape-rendering="auto" stroke-opacity="1" fill="black" stroke-dasharray="none" font-weight="normal" stroke-width="1" height="236" font-family="'Dialog'" font-style="normal" stroke-linejoin="miter" font-size="12px" stroke-dashoffset="0" image-rendering="auto">
  <!--Generated by ySVG 2.5-->
  <defs id="genericDefs"/>
  <g>
    <defs id="defs1">
      <linearGradient x1="93" gradientUnits="userSpaceOnUse" x2="195" y1="88.7188" y2="267.75" id="linearGradient1" spreadMethod="reflect">
        <stop stop-opacity="1" stop-color="rgb(232,238,247)" offset="0%"/>
        <stop stop-opacity="1" stop-color="rgb(183,201,227)" offset="100%"/>
      </linearGradient>
      <linearGradient x1="372" gradientUnits="userSpaceOnUse" x2="474" y1="88.7188" y2="267.75" id="linearGradient2" spreadMethod="reflect">
        <stop stop-opacity="1" stop-color="rgb(232,238,247)" offset="0%"/>
        <stop stop-opacity="1" stop-color="rgb(183,201,227)" offset="100%"/>
      </linearGradient>
      <clipPath clipPathUnits="userSpaceOnUse" id="clipPath1">
        <path d="M0 0 L411 0 L411 236 L0 236 L0 0 Z"/>
      </clipPath>
      <clipPath clipPathUnits="userSpaceOnUse" id="clipPath2">
        <path d="M78 47 L489 47 L489 283 L78 283 L78 47 Z"/>
      </clipPath>
      <clipPath clipPathUnits="userSpaceOnUse" id="clipPath3">
        <path d="M-7 -7.75 L404 -7.75 L404 228.25 L-7 228.25 L-7 -7.75 Z"/>
      </clipPath>
      <clipPath clipPathUnits="userSpaceOnUse" id="clipPath4">
        <path d="M78 88.7188 L78 283 L489 283 L489 88.7188 Z"/>
      </clipPath>
      <clipPath clipPathUnits="userSpaceOnUse" id="clipPath5">
        <path d="M78 47 L78 88.7188 L489 88.7188 L489 47 Z"/>
      </clipPath>
      <clipPath clipPathUnits="userSpaceOnUse" id="clipPath6">
        <path d="M-286 -7.75 L125 -7.75 L125 228.25 L-286 228.25 L-286 -7.75 Z"/>
      </clipPath>
      <clipPath clipPathUnits="userSpaceOnUse" id="clipPath7">
        <path d="M-261.3473 -105.1111 L103.986 -105.1111 L103.986 104.6667 L-261.3473 104.6667 L-261.3473 -105.1111 Z"/>
      </clipPath>
      <clipPath clipPathUnits="userSpaceOnUse" id="clipPath8">
        <path d="M-12 -10 L-12 10 L-0 10 L-0 -10 Z"/>
      </clipPath>
      <clipPath clipPathUnits="userSpaceOnUse" id="clipPath9">
        <path d="M104.0175 105.1111 L-261.3159 105.1111 L-261.3159 -104.6667 L104.0175 -104.6667 L104.0175 105.1111 Z"/>
      </clipPath>
      <clipPath clipPathUnits="userSpaceOnUse" id="clipPath10">
        <path d="M0 10 L0 -10 L-12 -10 L-12 10 Z"/>
      </clipPath>
    </defs>
    <g text-rendering="geometricPrecision" shape-rendering="geometricPrecision" transform="matrix(1,0,0,1,7,7.75)" image-rendering="optimizeQuality">
      <image x="0" y="0" clip-path="url(#clipPath3)" width="123" xlink:href="data:image/png;base64,iVBORw0KGgoAAAANSUhEUgAAAHsAAADiCAYAAABurrj0AAAEmklEQVR4Xu3W245U&#10;VRRG4YkNCNI0AgmILXJQDAc1URQERAE5eHj/93H+malYMfGmunpXcIyZfJe9d2eN&#10;WmuvKsdxHMdxHMdx3p850T5Ys6fFrK97Ohzb5OF54cl2qp1uH7YzWkTWOrLuWf90&#10;2Hr01U7Ow/Oyj9r5dqF93C5qEVnrOGj77WxN+HTZWvCEzi8pD8+LLrdP2mG73j7X&#10;YrLeWferNR2y6bLrtxI8D8iDEjq/qkS+2b5q99s37Vst5uuadc/636iJnhM2wfOJ&#10;PdJkV+foPqgJ/UVN4B/aT+2ZFvW0Zt0ftgftdk3w7PAc6Rvv7tWuzjc6R8bNmtB5&#10;2a/tt/a6vdEistbxqj1vj2qC53i/VLO7szk3msQ+VXMZyK7O0ZEdndBv2x/tTy0q&#10;a/57TfQEzw6/0660c3WEozy/khwNOcIPa35F2dXZ0XnpX9qZd+1le9zutWs1R3lO&#10;4o1m9b3OxSy3wBzh+WbkSMmv7N//gJaT3Z1N96RmE2YzZlPmJN5o1mPnu5DbYC4J&#10;xt69VexsvtzQP6u5lRv7f8jYIMYGMTaIsUGMDWJsEGODGBvE2CDGBjE2iLFBjA1i&#10;bBBjgxgbxNggxgYxNoixQYwNYmwQY4MYG8TYIMYGMTaIsUGMDWJsEGODGBvE2CDG&#10;BjE2iLFBjA1ibBBjgxgbxNggxgYxNoixQYwNYmwQY4MYG8TYIMYGMTaIsUGMDWJs&#10;EGODGBvE2CDGBjE2iLFBjA1ibBBjgxgbxNggxgYxNoixQYwNYmwQY4MYG8TYIMYG&#10;MTaIsUGMDWJsEGODGBvE2CDGBjE2iLFBjA1ibBBjgxgbxNggxgYxNoixQYwNYmwQ&#10;Y4MYG8TYIMYGMTaIsUGMDWJsEGODGBvE2CDGBjE2iLFBjA1ibBBjgxgbxNggxgYx&#10;NoixQYwNYmwQY4MYG8TYIMYGMTaIsUGMDWJsEGODGBvE2CDGBjE2iLFBjA1ibBBj&#10;gxgbxNggxgYxNoixQYwNYmwQY4MYG8TYIMYGMTaIsUGMDWJsEGODGBvE2CDGBjE2&#10;iLFBjA1ibBBjgxgbxNggxgYxNoixQYwNYmwQY4MYG8TYIMYGMTaIsUGMDWJsEGOD&#10;GBvE2CDGBjE2iLFBjA1ibBBjgxgbxNggxgYxNoixQYwNYmwQY4MYG+TYYuch12se&#10;moe/LmPvWmK/ak/ag3bYDuqIsU/XPCQPu98e17wkLzP4bmTd37YX7VG726618+1k&#10;bTgnan4p++1qu9Metl9qdve7muhaVkLnCP+5fde+bFfaubZXG05i54/PtsvtRs1R&#10;nl/T8/ay5qVaTk7VFzWhf6w5bfOJvdjO1JzGG8/qKM8Rkd19uyZ4dniO9Hwz8h3X&#10;MrLe2Wzf14S+VbOrc/rmFM4G3Xjyx/kO5FeTi1qCZ4fnSL9XczlIfC0j63235ujO&#10;jk7o3Klykd6rLcx68OzwSzUv+bTmyh95sY5X1jkX5VzGsv45uvfrn9BH2tXrs/p+&#10;50jPNzyXgYTPbtdysouz7ln/bL4c3VsNvZo8MN/wPDw7PS9KfC0r6571P5bI/zV5&#10;kXbDcRzHcRzHcZz3av4Gfu085zkd0doAAAAASUVORK5CYII=" height="226" preserveAspectRatio="none"/>
      <rect x="93" y="62.75" transform="matrix(1,0,0,1,-85,-54.75)" clip-path="url(#clipPath4)" fill="url(#linearGradient1)" width="102" image-rendering="auto" rx="4" ry="4" height="205" stroke="none"/>
      <rect x="93" y="62.75" transform="matrix(1,0,0,1,-85,-54.75)" clip-path="url(#clipPath5)" fill="rgb(183,201,227)" width="102" image-rendering="auto" rx="4" ry="4" height="205" stroke="none"/>
      <rect stroke-linecap="butt" x="93" y="62.75" transform="matrix(1,0,0,1,-85,-54.75)" clip-path="url(#clipPath2)" fill="none" width="102" image-rendering="auto" rx="4" ry="4" height="205" stroke-miterlimit="1.45"/>
      <line stroke-linecap="butt" transform="matrix(1,0,0,1,-85,-54.75)" clip-path="url(#clipPath2)" fill="none" x1="93" x2="195" y1="88.7188" image-rendering="auto" y2="88.7188" stroke-miterlimit="1.45"/>
    </g>
    <g text-rendering="geometricPrecision" stroke-miterlimit="1.45" shape-rendering="geometricPrecision" font-family="sans-serif" transform="matrix(1,0,0,1,-78,-47)" stroke-linecap="butt">
      <text x="127.7871" xml:space="preserve" y="79.8887" clip-path="url(#clipPath2)" stroke="none">users</text>
      <text x="97" xml:space="preserve" y="105.8574" clip-path="url(#clipPath2)" stroke="none">_id</text>
      <text x="97" xml:space="preserve" y="119.8262" clip-path="url(#clipPath2)" stroke="none">email</text>
      <text x="97" xml:space="preserve" y="133.7949" clip-path="url(#clipPath2)" stroke="none">password</text>
      <text x="97" xml:space="preserve" y="147.7637" clip-path="url(#clipPath2)" stroke="none">autologin</text>
      <text x="97" xml:space="preserve" y="161.7324" clip-path="url(#clipPath2)" stroke="none">avatar</text>
      <text x="97" xml:space="preserve" y="175.7012" clip-path="url(#clipPath2)" stroke="none">nickname</text>
      <text x="97" xml:space="preserve" y="189.6699" clip-path="url(#clipPath2)" stroke="none">name</text>
      <text x="97" xml:space="preserve" y="203.6387" clip-path="url(#clipPath2)" stroke="none">position</text>
      <text x="97" xml:space="preserve" y="217.6074" clip-path="url(#clipPath2)" stroke="none">enabled</text>
      <text x="97" xml:space="preserve" y="231.5762" clip-path="url(#clipPath2)" stroke="none">roles_id</text>
    </g>
    <g text-rendering="geometricPrecision" shape-rendering="geometricPrecision" transform="matrix(1,0,0,1,286,7.75)" image-rendering="optimizeQuality">
      <image x="0" y="0" clip-path="url(#clipPath6)" width="123" xlink:href="data:image/png;base64,iVBORw0KGgoAAAANSUhEUgAAAHsAAADiCAYAAABurrj0AAAEmklEQVR4Xu3W245U&#10;VRRG4YkNCNI0AgmILXJQDAc1URQERAE5eHj/93H+malYMfGmunpXcIyZfJe9d2eN&#10;WmuvKsdxHMdxHMdx3p850T5Ys6fFrK97Ohzb5OF54cl2qp1uH7YzWkTWOrLuWf90&#10;2Hr01U7Ow/Oyj9r5dqF93C5qEVnrOGj77WxN+HTZWvCEzi8pD8+LLrdP2mG73j7X&#10;YrLeWferNR2y6bLrtxI8D8iDEjq/qkS+2b5q99s37Vst5uuadc/636iJnhM2wfOJ&#10;PdJkV+foPqgJ/UVN4B/aT+2ZFvW0Zt0ftgftdk3w7PAc6Rvv7tWuzjc6R8bNmtB5&#10;2a/tt/a6vdEistbxqj1vj2qC53i/VLO7szk3msQ+VXMZyK7O0ZEdndBv2x/tTy0q&#10;a/57TfQEzw6/0660c3WEozy/khwNOcIPa35F2dXZ0XnpX9qZd+1le9zutWs1R3lO&#10;4o1m9b3OxSy3wBzh+WbkSMmv7N//gJaT3Z1N96RmE2YzZlPmJN5o1mPnu5DbYC4J&#10;xt69VexsvtzQP6u5lRv7f8jYIMYGMTaIsUGMDWJsEGODGBvE2CDGBjE2iLFBjA1i&#10;bBBjgxgbxNggxgYxNoixQYwNYmwQY4MYG8TYIMYGMTaIsUGMDWJsEGODGBvE2CDG&#10;BjE2iLFBjA1ibBBjgxgbxNggxgYxNoixQYwNYmwQY4MYG8TYIMYGMTaIsUGMDWJs&#10;EGODGBvE2CDGBjE2iLFBjA1ibBBjgxgbxNggxgYxNoixQYwNYmwQY4MYG8TYIMYG&#10;MTaIsUGMDWJsEGODGBvE2CDGBjE2iLFBjA1ibBBjgxgbxNggxgYxNoixQYwNYmwQ&#10;Y4MYG8TYIMYGMTaIsUGMDWJsEGODGBvE2CDGBjE2iLFBjA1ibBBjgxgbxNggxgYx&#10;NoixQYwNYmwQY4MYG8TYIMYGMTaIsUGMDWJsEGODGBvE2CDGBjE2iLFBjA1ibBBj&#10;gxgbxNggxgYxNoixQYwNYmwQY4MYG8TYIMYGMTaIsUGMDWJsEGODGBvE2CDGBjE2&#10;iLFBjA1ibBBjgxgbxNggxgYxNoixQYwNYmwQY4MYG8TYIMYGMTaIsUGMDWJsEGOD&#10;GBvE2CDGBjE2iLFBjA1ibBBjgxgbxNggxgYxNoixQYwNYmwQY4MYG+TYYuch12se&#10;moe/LmPvWmK/ak/ag3bYDuqIsU/XPCQPu98e17wkLzP4bmTd37YX7VG726618+1k&#10;bTgnan4p++1qu9Metl9qdve7muhaVkLnCP+5fde+bFfaubZXG05i54/PtsvtRs1R&#10;nl/T8/ay5qVaTk7VFzWhf6w5bfOJvdjO1JzGG8/qKM8Rkd19uyZ4dniO9Hwz8h3X&#10;MrLe2Wzf14S+VbOrc/rmFM4G3Xjyx/kO5FeTi1qCZ4fnSL9XczlIfC0j63235ujO&#10;jk7o3Klykd6rLcx68OzwSzUv+bTmyh95sY5X1jkX5VzGsv45uvfrn9BH2tXrs/p+&#10;50jPNzyXgYTPbtdysouz7ln/bL4c3VsNvZo8MN/wPDw7PS9KfC0r6571P5bI/zV5&#10;kXbDcRzHcRzHcZz3av4Gfu085zkd0doAAAAASUVORK5CYII=" height="226" preserveAspectRatio="none"/>
      <rect x="372" y="62.75" transform="matrix(1,0,0,1,-364,-54.75)" clip-path="url(#clipPath4)" fill="url(#linearGradient2)" width="102" image-rendering="auto" rx="4" ry="4" height="205" stroke="none"/>
      <rect x="372" y="62.75" transform="matrix(1,0,0,1,-364,-54.75)" clip-path="url(#clipPath5)" fill="rgb(183,201,227)" width="102" image-rendering="auto" rx="4" ry="4" height="205" stroke="none"/>
      <rect stroke-linecap="butt" x="372" y="62.75" transform="matrix(1,0,0,1,-364,-54.75)" clip-path="url(#clipPath2)" fill="none" width="102" image-rendering="auto" rx="4" ry="4" height="205" stroke-miterlimit="1.45"/>
      <line stroke-linecap="butt" transform="matrix(1,0,0,1,-364,-54.75)" clip-path="url(#clipPath2)" fill="none" x1="372" x2="474" y1="88.7188" image-rendering="auto" y2="88.7188" stroke-miterlimit="1.45"/>
    </g>
    <g text-rendering="geometricPrecision" stroke-miterlimit="1.45" shape-rendering="geometricPrecision" font-family="sans-serif" transform="matrix(1,0,0,1,-78,-47)" stroke-linecap="butt">
      <text x="408.3779" xml:space="preserve" y="79.8887" clip-path="url(#clipPath2)" stroke="none">roles</text>
      <text x="376" xml:space="preserve" y="105.8574" clip-path="url(#clipPath2)" stroke="none">_id</text>
      <text x="376" xml:space="preserve" y="119.8262" clip-path="url(#clipPath2)" stroke="none">name</text>
      <text x="376" xml:space="preserve" y="133.7949" clip-path="url(#clipPath2)" stroke="none">description</text>
      <text x="376" xml:space="preserve" y="147.7637" clip-path="url(#clipPath2)" stroke="none">disabled</text>
      <text x="376" xml:space="preserve" y="161.7324" clip-path="url(#clipPath2)" stroke="none">abilities</text>
      <text x="376" xml:space="preserve" y="175.7012" clip-path="url(#clipPath2)" stroke="none">- type</text>
      <text x="376" xml:space="preserve" y="189.6699" clip-path="url(#clipPath2)" stroke="none">- action</text>
      <text x="376" xml:space="preserve" y="203.6387" clip-path="url(#clipPath2)" stroke="none">- service</text>
      <text x="376" xml:space="preserve" y="217.6074" clip-path="url(#clipPath2)" stroke="none">- conditions</text>
      <text x="376" xml:space="preserve" y="231.5762" clip-path="url(#clipPath2)" stroke="none">- fieds</text>
    </g>
    <g stroke-linecap="butt" transform="matrix(1,0,0,1,-78,-47)" fill="red" text-rendering="geometricPrecision" shape-rendering="geometricPrecision" stroke="red" stroke-width="2" stroke-miterlimit="1.45">
      <path fill="none" d="M361.8907 165.25 L205.1446 165.25" clip-path="url(#clipPath2)"/>
    </g>
    <g stroke-linecap="butt" transform="matrix(1.125,0,0,1.125,294.0157,118.25)" fill="red" text-rendering="geometricPrecision" shape-rendering="geometricPrecision" stroke="red" stroke-miterlimit="1.45">
      <line y2="8" fill="none" x1="-15" clip-path="url(#clipPath7)" x2="-15" y1="-8"/>
      <line y2="8" fill="none" x1="-10" clip-path="url(#clipPath8)" x2="2" y1="0"/>
      <line y2="0" fill="none" x1="-10" clip-path="url(#clipPath8)" x2="2" y1="0"/>
      <line y2="-8" fill="none" x1="-10" clip-path="url(#clipPath8)" x2="2" y1="0"/>
    </g>
    <g stroke-linecap="butt" transform="matrix(-1.125,0,0,-1.125,117.0196,118.25)" fill="white" text-rendering="geometricPrecision" shape-rendering="geometricPrecision" stroke="white" stroke-miterlimit="1.45">
      <circle r="5" clip-path="url(#clipPath9)" cx="-15" cy="0" stroke="none"/>
      <circle fill="none" r="5" clip-path="url(#clipPath9)" cx="-15" cy="0" stroke="red"/>
      <line clip-path="url(#clipPath10)" fill="none" x1="-10" x2="2" y1="0" y2="8" stroke="red"/>
      <line clip-path="url(#clipPath10)" fill="none" x1="-10" x2="2" y1="0" y2="0" stroke="red"/>
      <line clip-path="url(#clipPath10)" fill="none" x1="-10" x2="2" y1="0" y2="-8" stroke="red"/>
    </g>
    <g stroke-linecap="butt" transform="matrix(1,0,0,1,-78,-47)" fill="red" text-rendering="geometricPrecision" font-family="sans-serif" shape-rendering="geometricPrecision" stroke="red" stroke-miterlimit="1.45">
      <text x="253.7109" xml:space="preserve" y="162.4199" clip-path="url(#clipPath2)" stroke="none">is allowed</text>
      <text x="237.167" xml:space="preserve" y="176.3887" clip-path="url(#clipPath2)" stroke="none">can be done by</text>
    </g>
  </g>
</svg>
